,,,,Deliverable Details,,Please Do Not Change or Reorganise Field Headers,
Employee ID,Area of Focus,Sub Area of Focus,Group,Departmental Objectives,WeightAge,Individual Performance Objectives,Score Type
BOC/IB/008,ORGANISATIONAL COMPETENCIES,,SECTION A,"Getting to the root of all problems; understanding the processes, procedures and full job requirements with demonstrable attention to detail",25,"To be completed by August 31, 2020",  --
BOC/IB/008,ROLE BASED AND TECHNICAL COMPETENCIES,,SECTION B,Achieve 15% increase in the next 3 month,12,"To be completed by August 31,2022", --
BOC-LA-0014,ORGANISATIONAL COMPETENCIES,,SECTION A,Achieve 80% increase in the next 3 month,12,"To be completed by August 31,2022", --
BOC/LA/015,ROLE BASED AND TECHNICAL COMPETENCIES,,SECTION B,REPORTING,5,Submits tenancy schedule to the manager every month, --
BOC/LA/015,ROLE BASED AND TECHNICAL COMPETENCIES,,SECTION B,REPORTING,3,Send in weekly report to the HR, --
BOC/IB/008,ROLE BASED AND TECHNICAL COMPETENCIES,,SECTION B,Telecom,12,"To be completed by August 31,2022", --
